{
	"highscores": {
		"world": "Vunira",
		"category": "experience",
		"vocation": "sorcerers",
		"highscore_list": [
			{
				"rank": 1,
				"name": "Heinzinki",
				"vocation": "Master Sorcerer",
				"world": "Vunira",
				"level": 2023,
				"value": 137686592341
			},
			{
				"rank": 2,
				"name": "Epus",
				"vocation": "Master Sorcerer",
				"world": "Vunira",
				"level": 1858,
				"value": 106626571059
			},
			{
				"rank": 3,
				"name": "True Hemaa",
				"vocation": "Master Sorcerer",
				"world": "Vunira",
				"level": 1624,
				"value": 71153500056
			},
			{
				"rank": 4,
				"name": "Og Kiedos",
				"vocation": "Master Sorcerer",
				"world": "Vunira",
				"level": 1525,
				"value": 58958493431
			},
			{
				"rank": 5,
				"name": "Nicol",
				"vocation": "Master Sorcerer",
				"world": "Vunira",
				"level": 1515,
				"value": 57786711667
			},
			{
				"rank": 6,
				"name": "Byoniic",
				"vocation": "Master Sorcerer",
				"world": "Vunira",
				"level": 1488,
				"value": 54692886819
			},
			{
				"rank": 7,
				"name": "Saintu",
				"vocation": "Master Sorcerer",
				"world": "Vunira",
				"level": 1466,
				"value": 52357987542
			},
			{
				"rank": 8,
				"name": "Not Weddz",
				"vocation": "Master Sorcerer",
				"world": "Vunira",
				"level": 1430,
				"value": 48587657228
			},
			{
				"rank": 9,
				"name": "Umeex",
				"vocation": "Master Sorcerer",
				"world": "Vunira",
				"level": 1352,
				"value": 41093209749
			},
			{
				"rank": 10,
				"name": "Daisuki Ito",
				"vocation": "Master Sorcerer",
				"world": "Vunira",
				"level": 1352,
				"value": 41017701607
			},
			{
				"rank": 11,
				"name": "Aliarise",
				"vocation": "Master Sorcerer",
				"world": "Vunira",
				"level": 1348,
				"value": 40683503116
			},
			{
				"rank": 12,
				"name": "Goat of Game",
				"vocation": "Master Sorcerer",
				"world": "Vunira",
				"level": 1316,
				"value": 37868217463
			},
			{
				"rank": 13,
				"name": "Ykk",
				"vocation": "Master Sorcerer",
				"world": "Vunira",
				"level": 1313,
				"value": 37577414372
			},
			{
				"rank": 14,
				"name": "Illmu",
				"vocation": "Master Sorcerer",
				"world": "Vunira",
				"level": 1295,
				"value": 36107571958
			},
			{
				"rank": 15,
				"name": "Quakkap",
				"vocation": "Master Sorcerer",
				"world": "Vunira",
				"level": 1293,
				"value": 35919382117
			},
			{
				"rank": 16,
				"name": "Grapleer",
				"vocation": "Master Sorcerer",
				"world": "Vunira",
				"level": 1238,
				"value": 31485099997
			},
			{
				"rank": 17,
				"name": "Hardcor",
				"vocation": "Master Sorcerer",
				"world": "Vunira",
				"level": 1193,
				"value": 28212002584
			},
			{
				"rank": 18,
				"name": "Robin Kint",
				"vocation": "Master Sorcerer",
				"world": "Vunira",
				"level": 1182,
				"value": 27436499670
			},
			{
				"rank": 19,
				"name": "Rushikov",
				"vocation": "Master Sorcerer",
				"world": "Vunira",
				"level": 1179,
				"value": 27182088468
			},
			{
				"rank": 20,
				"name": "Revanne",
				"vocation": "Master Sorcerer",
				"world": "Vunira",
				"level": 1167,
				"value": 26380768365
			},
			{
				"rank": 21,
				"name": "Firewalk",
				"vocation": "Master Sorcerer",
				"world": "Vunira",
				"level": 1140,
				"value": 24606640965
			},
			{
				"rank": 22,
				"name": "Jidler",
				"vocation": "Master Sorcerer",
				"world": "Vunira",
				"level": 1140,
				"value": 24569313289
			},
			{
				"rank": 23,
				"name": "Rhuor",
				"vocation": "Master Sorcerer",
				"world": "Vunira",
				"level": 1134,
				"value": 24204707320
			},
			{
				"rank": 24,
				"name": "Anna Alexy",
				"vocation": "Master Sorcerer",
				"world": "Vunira",
				"level": 1129,
				"value": 23883195196
			},
			{
				"rank": 25,
				"name": "Minusfour Azilonaccess",
				"vocation": "Master Sorcerer",
				"world": "Vunira",
				"level": 1127,
				"value": 23777388807
			},
			{
				"rank": 26,
				"name": "Daarku",
				"vocation": "Master Sorcerer",
				"world": "Vunira",
				"level": 1113,
				"value": 22886915576
			},
			{
				"rank": 27,
				"name": "Darklight Cow",
				"vocation": "Master Sorcerer",
				"world": "Vunira",
				"level": 1094,
				"value": 21750781117
			},
			{
				"rank": 28,
				"name": "Lord Zilez",
				"vocation": "Master Sorcerer",
				"world": "Vunira",
				"level": 1094,
				"value": 21725360446
			},
			{
				"rank": 29,
				"name": "Gustavo Loco",
				"vocation": "Master Sorcerer",
				"world": "Vunira",
				"level": 1092,
				"value": 21613966406
			},
			{
				"rank": 30,
				"name": "Horon Aoldas",
				"vocation": "Master Sorcerer",
				"world": "Vunira",
				"level": 1092,
				"value": 21600818214
			},
			{
				"rank": 31,
				"name": "Fardar",
				"vocation": "Master Sorcerer",
				"world": "Vunira",
				"level": 1086,
				"value": 21239171909
			},
			{
				"rank": 32,
				"name": "Theuzzito",
				"vocation": "Sorcerer",
				"world": "Vunira",
				"level": 1067,
				"value": 20150241855
			},
			{
				"rank": 33,
				"name": "Sunyata Rayder",
				"vocation": "Master Sorcerer",
				"world": "Vunira",
				"level": 1028,
				"value": 18034796035
			},
			{
				"rank": 34,
				"name": "Alia Goonsquad",
				"vocation": "Master Sorcerer",
				"world": "Vunira",
				"level": 1028,
				"value": 18027631334
			},
			{
				"rank": 35,
				"name": "Progangus Daxi",
				"vocation": "Master Sorcerer",
				"world": "Vunira",
				"level": 1027,
				"value": 17959397191
			},
			{
				"rank": 36,
				"name": "Rox Fox",
				"vocation": "Master Sorcerer",
				"world": "Vunira",
				"level": 1026,
				"value": 17905150848
			},
			{
				"rank": 37,
				"name": "Dajy",
				"vocation": "Master Sorcerer",
				"world": "Vunira",
				"level": 1009,
				"value": 17033492388
			},
			{
				"rank": 38,
				"name": "Weeix",
				"vocation": "Master Sorcerer",
				"world": "Vunira",
				"level": 1005,
				"value": 16829383522
			},
			{
				"rank": 39,
				"name": "Killer Nato",
				"vocation": "Master Sorcerer",
				"world": "Vunira",
				"level": 998,
				"value": 16479043319
			},
			{
				"rank": 40,
				"name": "Tahyaa",
				"vocation": "Master Sorcerer",
				"world": "Vunira",
				"level": 978,
				"value": 15542312772
			},
			{
				"rank": 41,
				"name": "Albi Balbi",
				"vocation": "Master Sorcerer",
				"world": "Vunira",
				"level": 960,
				"value": 14697599188
			},
			{
				"rank": 42,
				"name": "Poszyty czarodziej",
				"vocation": "Master Sorcerer",
				"world": "Vunira",
				"level": 957,
				"value": 14532445716
			},
			{
				"rank": 43,
				"name": "Tito Garci",
				"vocation": "Master Sorcerer",
				"world": "Vunira",
				"level": 955,
				"value": 14427460329
			},
			{
				"rank": 44,
				"name": "Szulcerer",
				"vocation": "Master Sorcerer",
				"world": "Vunira",
				"level": 951,
				"value": 14275633304
			},
			{
				"rank": 45,
				"name": "Mango Mage",
				"vocation": "Master Sorcerer",
				"world": "Vunira",
				"level": 946,
				"value": 14031874411
			},
			{
				"rank": 46,
				"name": "Bo Vincencik",
				"vocation": "Master Sorcerer",
				"world": "Vunira",
				"level": 945,
				"value": 14010783605
			},
			{
				"rank": 47,
				"name": "Plusik",
				"vocation": "Master Sorcerer",
				"world": "Vunira",
				"level": 944,
				"value": 13936206497
			},
			{
				"rank": 48,
				"name": "Bolas Malice",
				"vocation": "Master Sorcerer",
				"world": "Vunira",
				"level": 941,
				"value": 13837785684
			},
			{
				"rank": 49,
				"name": "Pyron Rozkmin",
				"vocation": "Master Sorcerer",
				"world": "Vunira",
				"level": 939,
				"value": 13720939181
			},
			{
				"rank": 50,
				"name": "Grzesio rasiak",
				"vocation": "Master Sorcerer",
				"world": "Vunira",
				"level": 937,
				"value": 13637754709
			}
		],
		"highscore_page": {
			"current_page": 1,
			"total_pages": 20,
			"total_records": 1000
		}
	},
	"information": {
		"api": {
			"version": 4,
			"release": "edge",
			"commit": "86f5ce3f03faa7bbe7495a578a557efb892add9f"
		},
		"tibia_urls": [
			"https://www.tibia.com/community/?subtopic=highscores&world=Vunira&category=6&profession=4&currentpage=1"
		],
		"status": {
			"http_code": 200
		}
	}
}
